[
  {
    "name": "豆奶制品",
    "list": [
      {
        "name": "\u8c46\u8150",
        "quality": 0,
        "glycemicIndex": "0",
        "level": -1,
        "imgUrl": "http:\/\/p.qpic.cn\/byb_pic\/ajNVdqHZLLDibGMupGia7gj3hoGkVnPh1UyxkiaJBbGqgXRQibT6iamfuOC02q8TqxzL26G7AicptrMtk\/120",
        "content": "\n\u8c46\u8150\u4e0d\u542b\u80c6\u56fa\u9187\uff0c\u662f\u9ad8\u8840\u538b\u3001\u9ad8\u8840\u8102\u3001\u9ad8\u80c6\u56fa\u9187\u75c7\u53ca\u52a8\u8109\u786c\u5316\u3001\u51a0\u5fc3\u75c5\u60a3\u8005\u7684\u836f\u81b3\u4f73\u80b4\u3002\u4e5f\u662f\u513f\u7ae5\u3001\u75c5\u5f31\u8005\u53ca\u8001\u5e74\u4eba\u8865\u5145\u8425\u517b\u7684\u98df\u7597\u4f73\u54c1\u3002\u8c46\u8150\u542b\u6709\u4e30\u5bcc\u7684\u690d\u7269\u96cc\u6fc0\u7d20\uff0c\u5bf9\u9632\u6cbb\u9aa8\u8d28\u758f\u677e\u75c7\u6709\u826f\u597d\u7684\u4f5c\u7528\u3002\u80be\u529f\u80fd\u5f02\u5e38\u7684\u7cd6\u5c3f\u75c5\u4eba\uff0c\u5e94\u6ce8\u610f\u4e0d\u8981\u5927\u91cf\u98df\u7528\u8c46\u8150\uff0c\u6444\u5165\u8fc7\u591a\u7684\u690d\u7269\u6027\u86cb\u767d\u8d28\uff0c\u4f1a\u4f7f\u4f53\u5185\u751f\u6210\u7684\u542b\u6c2e\u5e9f\u7269\u589e\u591a\uff0c\u52a0\u91cd\u80be\u810f\u7684\u8d1f\u62c5\u3002\u8c46\u8150\u542b\u560c\u5464\u8f83\u591a\uff0c\u560c\u5464\u4ee3\u8c22\u5931\u5e38\u7684\u75db\u98ce\u75c5\u4eba\u548c\u8840\u5c3f\u9178\u6d53\u5ea6\u589e\u9ad8\u7684\u60a3\u8005\u591a\u98df\u6613\u5bfc\u81f4\u75db\u98ce\u53d1\u4f5c\uff0c\u7279\u522b\u662f\u75db\u98ce\u75c5\u60a3\u8005\u8981\u5c11\u98df\u3002",
        "category_id": "2"
      },
      {
        "name": "\u8c46\u6d46",
        "quality": 0,
        "glycemicIndex": "0",
        "level": -1,
        "imgUrl": "http:\/\/p.qpic.cn\/byb_pic\/ajNVdqHZLLCIWrzV19cnUEbEnuCibCicx1mfZHiaRqHfQspjAPE4BSlUJ8k3MgAYibvzfweGPa8KZWc\/120",
        "content": "\u4f5c\u4e3a\u7cd6\u5c3f\u75c5\u4eba\u7ecf\u5e38\u9009\u62e9\u7684\u8425\u517b\u98df\u7269\u4e4b\u4e00\uff0c\u996e\u7528\u65f6\uff0c\u5efa\u8bae\u4e0d\u6dfb\u52a0\u7cd6\u4efd\u3002\u6b64\u5916\uff0c\u53ef\u6839\u636e\u559c\u597d\uff0c\u9009\u62e9\u591a\u79cd\u6216\u4e0d\u540c\u54c1\u7c7b\u7684\u8c46\u6765\u5236\u4f5c\uff0c\u66f4\u662f\u63a8\u8350\uff0c\u8425\u517b\u6210\u5206\u66f4\u4e3a\u4e30\u5bcc\u591a\u6837\uff0c\u4f8b\u5982\u4e94\u8c37\u8c46\u6d46\u3001\u829d\u9ebb\u9ed1\u8c46\u6d46\u7b49\u3002",
        "category_id": "2"
      },
      {
        "name": "\u9999\u5e72",
        "quality": 0,
        "glycemicIndex": "0",
        "level": -1,
        "imgUrl": "http:\/\/p.qpic.cn\/byb_pic\/ajNVdqHZLLCUUcxzmUI0nv2t2Z0xriaSEOlerQYfXm0JM97xH7M3Kibn0WNXbHXgCNvLuHOhpgb0U\/120",
        "content": "\n\u9999\u5e72\u94a0\u7684\u542b\u91cf\u8f83\u9ad8\uff0c\u7cd6\u5c3f\u75c5\u3001\u80a5\u80d6\u6216\u5176\u4ed6\u6162\u6027\u75c5\u5982\u80be\u810f\u75c5\u3001\u9ad8\u8840\u8102\u60a3\u8005\u614e\u98df\uff1b\u8001\u4eba\u3001\u7f3a\u94c1\u6027\u8d2b\u8840\u60a3\u8005\u5c24\u5176\u8981\u5c11\u98df\u3002",
        "category_id": "2"
      },
      {
        "name": "\u8c46\u8150\u8111",
        "quality": 0,
        "glycemicIndex": "0",
        "level": -1,
        "imgUrl": "http:\/\/p.qpic.cn\/byb_pic\/ajNVdqHZLLCM3ZjzPgFhk51yfiafjOV8gV4eTibaIvjgFS36nATdQQo1K8iayWAz9UcZCYKUzSZYI0\/120",
        "content": "\u7cd6\u5c3f\u75c5\u4eba\u5355\u7eaf\u98df\u7528\u8c46\u8150\u8111\u6216\u8005\u8c46\u8150\u82b1\uff0c\u5982\u6b63\u5e38\u7684\u86cb\u767d\u8d28\u9700\u6c42\u98df\u7528\uff0c\u53ef\u662f\uff0c\u56e0\u4e3a\u6dfb\u52a0\u4e86\u5176\u4ed6\u4e1c\u897f\u540e\uff0c\u5efa\u8bae\u8fd8\u662f\u5c3d\u91cf\u5c11\u9009\u62e9\u3002",
        "category_id": "2"
      },
      {
        "name": "\u81ed\u5e72",
        "quality": 0,
        "glycemicIndex": "0",
        "level": -1,
        "imgUrl": "http:\/\/p.qpic.cn\/byb_pic\/ajNVdqHZLLBWsicwXPgJMLicIKZkOjIWZE1spv1qGQbU6GBclT5OruBnbFTNGBoh6qNdx8AIC8Enw\/120",
        "content": "\n\u7cd6\u5c3f\u75c5\u4eba\u5728\u98df\u7528\u8fc7\u7a0b\u4e2d\uff0c\u4e0d\u8981\u8fc7\u591a\u6dfb\u52a0\u9171\u6599\u3001\u8c03\u5473\u6599\uff0c\u6bd5\u7adf\u7ecf\u8fc7\u70f9\u70b8\u540e\uff0c\u542b\u6cb9\u8102\u8f83\u591a\uff0c\u8638\u4e0a\u9171\u6599\u540e\uff0c\u5c31\u5f88\u5bb9\u6613\u53d8\u6210\u9ad8\u6cb9\u9ad8\u76d0\u9ad8\u70ed\u91cf\u98df\u7269\uff0c\u56e0\u6b64\uff0c\u5efa\u8bae\u5c11\u91cf\u5c1d\u7528\u3002",
        "category_id": "2"
      },
      {
        "name": "\u5357\u8c46\u8150",
        "quality": 0,
        "glycemicIndex": "0",
        "level": -1,
        "imgUrl": "http:\/\/p.qpic.cn\/byb_pic\/A5Mwpcc4tELia5YsnlJnlIY9EUu8bux9XkcJ3iagNfCbasyS8KSz3ia6UX2dCa8TViaoibGY5a8XlKy8\/120",
        "content": "\n\u8c46\u8150\u4e0d\u542b\u80c6\u56fa\u9187\uff0c\u662f\u9ad8\u8840\u538b\u3001\u9ad8\u8840\u8102\u3001\u9ad8\u80c6\u56fa\u9187\u75c7\u53ca\u52a8\u8109\u786c\u5316\u3001\u51a0\u5fc3\u75c5\u60a3\u8005\u7684\u836f\u81b3\u4f73\u80b4\u3002\u4e5f\u662f\u513f\u7ae5\u3001\u75c5\u5f31\u8005\u53ca\u8001\u5e74\u4eba\u8865\u5145\u8425\u517b\u7684\u98df\u7597\u4f73\u54c1\u3002\u8c46\u8150\u542b\u6709\u4e30\u5bcc\u7684\u690d\u7269\u96cc\u6fc0\u7d20\uff0c\u5bf9\u9632\u6cbb\u9aa8\u8d28\u758f\u677e\u75c7\u6709\u826f\u597d\u7684\u4f5c\u7528\u3002\u80be\u529f\u80fd\u5f02\u5e38\u7684\u7cd6\u5c3f\u75c5\u4eba\uff0c\u5e94\u6ce8\u610f\u4e0d\u8981\u5927\u91cf\u98df\u7528\u8c46\u8150\uff0c\u6444\u5165\u8fc7\u591a\u7684\u690d\u7269\u6027\u86cb\u767d\u8d28\uff0c\u4f1a\u4f7f\u4f53\u5185\u751f\u6210\u7684\u542b\u6c2e\u5e9f\u7269\u589e\u591a\uff0c\u52a0\u91cd\u80be\u810f\u7684\u8d1f\u62c5\u3002\u8c46\u8150\u542b\u560c\u5464\u8f83\u591a\uff0c\u560c\u5464\u4ee3\u8c22\u5931\u5e38\u7684\u75db\u98ce\u75c5\u4eba\u548c\u8840\u5c3f\u9178\u6d53\u5ea6\u589e\u9ad8\u7684\u60a3\u8005\u591a\u98df\u6613\u5bfc\u81f4\u75db\u98ce\u53d1\u4f5c\uff0c\u7279\u522b\u662f\u75db\u98ce\u75c5\u60a3\u8005\u8981\u5c11\u98df\u3002",
        "category_id": "2"
      },
      {
        "name": "\u5317\u8c46\u8150",
        "quality": 0,
        "glycemicIndex": "0",
        "level": -1,
        "imgUrl": "http:\/\/p.qpic.cn\/byb_pic\/jdmZ8EFhADhSy7rn1SG1YVs3nvLaqNt4cDMrDsrJLxUpeWA96FUuK6aMjomBY3wVMbZCa7Dolmw\/120",
        "content": "\n\u8c46\u8150\u4e0d\u542b\u80c6\u56fa\u9187\uff0c\u662f\u9ad8\u8840\u538b\u3001\u9ad8\u8840\u8102\u3001\u9ad8\u80c6\u56fa\u9187\u75c7\u53ca\u52a8\u8109\u786c\u5316\u3001\u51a0\u5fc3\u75c5\u60a3\u8005\u7684\u836f\u81b3\u4f73\u80b4\u3002\u4e5f\u662f\u513f\u7ae5\u3001\u75c5\u5f31\u8005\u53ca\u8001\u5e74\u4eba\u8865\u5145\u8425\u517b\u7684\u98df\u7597\u4f73\u54c1\u3002\u8c46\u8150\u542b\u6709\u4e30\u5bcc\u7684\u690d\u7269\u96cc\u6fc0\u7d20\uff0c\u5bf9\u9632\u6cbb\u9aa8\u8d28\u758f\u677e\u75c7\u6709\u826f\u597d\u7684\u4f5c\u7528\u3002\u80be\u529f\u80fd\u5f02\u5e38\u7684\u7cd6\u5c3f\u75c5\u4eba\uff0c\u5e94\u6ce8\u610f\u4e0d\u8981\u5927\u91cf\u98df\u7528\u8c46\u8150\uff0c\u6444\u5165\u8fc7\u591a\u7684\u690d\u7269\u6027\u86cb\u767d\u8d28\uff0c\u4f1a\u4f7f\u4f53\u5185\u751f\u6210\u7684\u542b\u6c2e\u5e9f\u7269\u589e\u591a\uff0c\u52a0\u91cd\u80be\u810f\u7684\u8d1f\u62c5\u3002\u8c46\u8150\u542b\u560c\u5464\u8f83\u591a\uff0c\u560c\u5464\u4ee3\u8c22\u5931\u5e38\u7684\u75db\u98ce\u75c5\u4eba\u548c\u8840\u5c3f\u9178\u6d53\u5ea6\u589e\u9ad8\u7684\u60a3\u8005\u591a\u98df\u6613\u5bfc\u81f4\u75db\u98ce\u53d1\u4f5c\uff0c\u7279\u522b\u662f\u75db\u98ce\u75c5\u60a3\u8005\u8981\u5c11\u98df\u3002",
        "category_id": "2"
      },
      {
        "name": "\u767d\u8150\u4e73",
        "quality": 0,
        "glycemicIndex": "0",
        "level": -1,
        "imgUrl": "http:\/\/p.qpic.cn\/byb_pic\/pVFIOa4fpnumDwXxy4WFwDelCKcCqBCH7GhvWJUgsykEurLCDQkXCjYcbxtgDrE2JRmbHDqPDaw\/120",
        "content": "\n\u767d\u8150\u4e73\u542b\u76d0\u548c\u560c\u5464\u91cf\u666e\u904d\u8f83\u9ad8\uff0c\u9ad8\u8840\u538b\u3001\u5fc3\u8840\u7ba1\u75c5\u3001\u75db\u98ce\u3001\u80be\u75c5\u60a3\u8005\u53ca\u6d88\u5316\u9053\u6e83\u75a1\u60a3\u8005\uff0c\u5b9c\u5c11\u5403\u6216\u4e0d\u5403\u3002",
        "category_id": "2"
      },
      {
        "name": "\u6842\u6797\u8150\u4e73",
        "quality": 0,
        "glycemicIndex": "0",
        "level": -1,
        "imgUrl": "http:\/\/p.qpic.cn\/byb_pic\/enuMXl2G3VcKf6L2ylkibGdTpiaGMibPvILayzsib8Lrf8D5ViaxD9Q6011ia48jicY6jWxOya9I96f4yE\/120",
        "content": "\n\u6842\u6797\u8150\u4e73\u542b\u76d0\u548c\u560c\u5464\u91cf\u666e\u904d\u8f83\u9ad8\uff0c\u9ad8\u8840\u538b\u3001\u5fc3\u8840\u7ba1\u75c5\u3001\u75db\u98ce\u3001\u80be\u75c5\u60a3\u8005\u53ca\u6d88\u5316\u9053\u6e83\u75a1\u60a3\u8005\uff0c\u5b9c\u5c11\u5403\u6216\u4e0d\u5403\u3002",
        "category_id": "2"
      },
      {
        "name": "\u7ea2\u8150\u4e73",
        "quality": 0,
        "glycemicIndex": "0",
        "level": -1,
        "imgUrl": "http:\/\/p.qpic.cn\/byb_pic\/dlnFkTX00RpibgVwxHgSvM0KJR41tX0tnqDF6XrAKJ1kxXXSAb0I92QWXE44ots4FvL3Cunt2dIE\/120",
        "content": "\n\u7ea2\u8150\u4e73\u542b\u76d0\u548c\u560c\u5464\u91cf\u666e\u904d\u8f83\u9ad8\uff0c\u9ad8\u8840\u538b\u3001\u5fc3\u8840\u7ba1\u75c5\u3001\u75db\u98ce\u3001\u80be\u75c5\u60a3\u8005\u53ca\u6d88\u5316\u9053\u6e83\u75a1\u60a3\u8005\uff0c\u5b9c\u5c11\u5403\u6216\u4e0d\u5403\u3002",
        "category_id": "2"
      },
      {
        "name": "\u8c46\u5976",
        "quality": 0,
        "glycemicIndex": "19",
        "level": -1,
        "imgUrl": "http:\/\/p.qpic.cn\/byb_pic\/ajNVdqHZLLAdblk52yibtmIAHhz64ibicb2DHNIqmfOiactFE5ibykDECiaoe3Q0rNH0LwTfLUCEXZnaY\/120",
        "content": "\u4e0d\u5efa\u8bae\u7cd6\u5c3f\u75c5\u4eba\u8d2d\u4e70\u5e02\u573a\u4e0a\u51fa\u552e\u7684\u8c46\u5976\u5236\u54c1\uff0c\u56e0\u6dfb\u52a0\u4e0d\u5c11\u7cd6\u5206\uff0c\u4e0d\u5229\u4e8e\u8840\u7cd6\u63a7\u5236\u3002",
        "category_id": "2"
      },
      {
        "name": "\u9ec4\u8c46",
        "quality": 0,
        "glycemicIndex": "20",
        "level": -1,
        "imgUrl": "http:\/\/p.qpic.cn\/byb_pic\/ibrG3xxFfTTjtac6UwsabDTQL6CW1h1dWXGiblqibGzVLHO7oO7IwSezvxeqkB1fV1dLEdHkKYEks8\/120",
        "content": "\u9ec4\u8c46\u8425\u517b\u5168\u9762\uff0c\u542b\u91cf\u4e30\u5bcc\uff0c\u5176\u4e2d\u86cb\u767d\u8d28\u7684\u542b\u91cf\u6bd4\u732a\u8089\u9ad82\u500d\uff0c\u662f\u9e21\u86cb\u542b\u91cf\u76842.5\u500d\u3002\u86cb\u767d\u8d28\u7684\u542b\u91cf\u4e0d\u4ec5\u9ad8\uff0c\u800c\u4e14\u8d28\u91cf\u597d\u3002\u5927\u8c46\u86cb\u767d\u8d28\u7684\u6c28\u57fa\u9178\u7ec4\u6210\u548c\u52a8\u7269\u86cb\u767d\u8d28\u8fd1\u4f3c\uff0c\u5176\u4e2d\u6c28\u57fa\u9178\u6bd4\u8f83\u63a5\u8fd1\u4eba\u4f53\u9700\u8981\u7684\u6bd4\u503c\uff0c\u6240\u4ee5\u5bb9\u6613\u88ab\u6d88\u5316\u5438\u6536\u3002\u5982\u679c\u628a\u5927\u8c46\u548c\u8089\u7c7b\u98df\u54c1\u3001\u86cb\u7c7b\u98df\u54c1\u642d\u914d\u7740\u6765\u5403\uff0c\u5176\u8425\u517b\u53ef\u4ee5\u548c\u86cb\u3001\u5976\u7684\u8425\u517b\u76f8\u6bd4\uff0c\u751a\u81f3\u8fd8\u8d85\u8fc7\u86cb\u548c\u5976\u7684\u8425\u517b\u3002",
        "category_id": "2"
      },
      {
        "name": "\u6241\u8c46",
        "quality": 0,
        "glycemicIndex": "19",
        "level": -1,
        "imgUrl": "http:\/\/p.qpic.cn\/byb_pic\/5bqDJSUdkVlkicFic01GnxV1xdChmxlLQVN0b5HEwgoAZXAb9mYK18paQ0LBaVGXc47cibicsymznBQ\/120",
        "content": "\n\u6241\u8c46\u4f5c\u4e3a\u6742\u8c46\u6750\u6599\u71ac\u7ca5\u65f6\uff0c\u8981\u6ce8\u610f\u6bcf80\u514b\u6241\u8c46\u4e2d\u542b\u78b3\u6c34\u5316\u7269\u548c\u86cb\u767d\u8d28\u4e5f\u8f83\u4e30\u5bcc\uff0c\u56e0\u6b64\uff0c\u65e2\u53ef\u63d0\u4f9b\u4e30\u5bcc\u7684\u80fd\u91cf\uff0c\u4e5f\u53ef\u63d0\u4f9b\u4e30\u5bcc\u7684\u86cb\u767d\u8d28\u8425\u517b\uff0c\u5e76\u4e14\u5347\u7cd6\u6307\u6570\u53c8\u4e0d\u5982\u65e5\u5e38\u7684\u8c37\u7c7b\u9ad8\uff0c\u662f\u7cd6\u5c3f\u75c5\u4eba\u7684\u7406\u60f3\u6742\u8c46\u9009\u62e9\u4e4b\u4e00\u3002",
        "category_id": "2"
      },
      {
        "name": "\u767d\u6241\u8c46",
        "quality": 0,
        "glycemicIndex": "38",
        "level": -1,
        "imgUrl": "http:\/\/p.qpic.cn\/byb_pic\/DuQN3o3JFD0mAklFrF8J3icA3fTOp0gW4QnnaoW757sudwj4OwrKueAXCXjWzrxje6abrdsIwx1k\/120",
        "content": "\n\u6241\u8c46\u4f5c\u4e3a\u6742\u8c46\u6750\u6599\u71ac\u7ca5\u65f6\uff0c\u8981\u6ce8\u610f\u6bcf80\u514b\u6241\u8c46\u4e2d\u542b\u78b3\u6c34\u5316\u7269\u548c\u86cb\u767d\u8d28\u4e5f\u4e5f\u8f83\u4e30\u5bcc\uff0c\u56e0\u6b64\uff0c\u65e2\u53ef\u63d0\u4f9b\u4e30\u5bcc\u7684\u80fd\u91cf\uff0c\u4e5f\u53ef\u63d0\u4f9b\u4e30\u5bcc\u7684\u86cb\u767d\u8d28\u8425\u517b\uff0c\u5e76\u4e14\u5347\u7cd6\u6307\u6570\u53c8\u4e0d\u5982\u65e5\u5e38\u7684\u8c37\u7c7b\u9ad8\uff0c\u662f\u7cd6\u5c3f\u75c5\u4eba\u7684\u7406\u60f3\u6742\u8c46\u9009\u62e9\u4e4b\u4e00\u3002\u6241\u8c46\u5165\u836f\u4f7f\u7528\u65f6\uff0c\u6709\u5229\u4e8e\u6691\u6e7f\u90aa\u6c14\u7684\u795b\u9664\uff0c\u5065\u813e\u6b62\u6cfb\u4e4b\u6548\uff0c\u540c\u65f6\u6241\u8c46\u8fd8\u6709\u663e\u8457\u7684\u6d88\u9000\u80bf\u7624\u7684\u4f5c\u7528\u3002",
        "category_id": "2"
      },
      {
        "name": "\u8c46\u8150\u5e72",
        "quality": 0,
        "glycemicIndex": "24",
        "level": -1,
        "imgUrl": "http:\/\/p.qpic.cn\/byb_pic\/ajNVdqHZLLAOr1fXETn44ghkg2wLrNJDcJNicVicJyCQZ34513qB0yUuiatp49oGRCyOJFVKHA94SU\/120",
        "content": "\n\u7531\u4e8e\u5236\u4f5c\u8fc7\u7a0b\u4e2d\u6dfb\u52a0\u98df\u76d0\uff0c\u56e0\u6b64\uff0c\u6709\u9ad8\u8840\u538b\u7684\u7cd6\u5c3f\u75c5\u4eba\uff0c\u4e0d\u5efa\u8bae\u7ecf\u5e38\u9009\u62e9\u98df\u7528\u3002\u53e6\u80be\u529f\u80fd\u5f02\u5e38\u7684\u7cd6\u5c3f\u75c5\u4eba\uff0c\u5e94\u6ce8\u610f\u4e0d\u8981\u5927\u91cf\u98df\u7528\u8c46\u8150\u5e72\uff0c\u6444\u5165\u8fc7\u591a\u7684\u690d\u7269\u6027\u86cb\u767d\u8d28\uff0c\u4f1a\u4f7f\u4f53\u5185\u751f\u6210\u7684\u542b\u6c2e\u5e9f\u7269\u589e\u591a\uff0c\u52a0\u91cd\u80be\u810f\u7684\u8d1f\u62c5\u3002\u8c46\u8150\u5e72\u542b\u560c\u5464\u8f83\u591a\uff0c\u560c\u5464\u4ee3\u8c22\u5931\u5e38\u7684\u75db\u98ce\u75c5\u4eba\u548c\u8840\u5c3f\u9178\u6d53\u5ea6\u589e\u9ad8\u7684\u60a3\u8005\u591a\u98df\u6613\u5bfc\u81f4\u75db\u98ce\u53d1\u4f5c\uff0c\u7279\u522b\u662f\u75db\u98ce\u75c5\u60a3\u8005\u8981\u5c11\u98df\u3002",
        "category_id": "2"
      },
      {
        "name": "\u9e21\u86cb",
        "quality": 0,
        "glycemicIndex": "30",
        "level": -1,
        "imgUrl": "http:\/\/p.qpic.cn\/byb_pic\/sufNAyJ5WvndEeYlFqsxZDDibvvVrBv6IYibCETP89OfO49piceFnIZycvSvavzwlgfFmCiczibP43hQ\/120",
        "content": "\n\u9e21\u86cb\u8425\u517b\u4ef7\u503c\u56fa\u7136\u5f88\u9ad8\uff0c\u4f46\u86cb\u9ec4\u542b\u6709\u8f83\u591a\u7684\u9971\u548c\u8102\u80aa\u9178\u548c\u80c6\u56fa\u9187\u3002\u80c6\u56fa\u9187\u6444\u5165\u8fc7\u591a\u5219\u662f\u6709\u5bb3\u7684\uff0c\u53ef\u5f15\u8d77\u8840\u8102\u5f02\u5e38\u3002\u800c\u7cd6\u5c3f\u75c5\u4eba\u66f4\u5bb9\u6613\u53d1\u751f\u9ad8\u8840\u8102\u548c\u51a0\u5fc3\u75c5\uff0c\u6240\u4ee5\u300a\u4e2d\u56fd\u7cd6\u5c3f\u75c5\u533b\u5b66\u8425\u517b\u6307\u53572013\u300b\u5efa\u8bae\u7cd6\u5c3f\u75c5\u4eba\u6bcf\u5929\u6444\u5165\u7684\u80c6\u56fa\u9187\u4e0d\u8981\u8d85\u8fc7300\u6beb\u514b\u3002\u800c\u4e00\u4e2a\u5927\u5c0f\u9002\u4e2d\u7684\u9e21\u86cb\u7ea6\u542b\u80c6\u56fa\u9187300\u6beb\u514b\u5de6\u53f3\uff0c\u56e0\u6b64\uff0c\u7cd6\u5c3f\u75c5\u4eba\u6bcf\u5929\u6700\u591a\u5403\u4e00\u4e2a\u9e21\u86cb\u3002\u800c\u5bf9\u4e8e\u90a3\u4e9b\u5408\u5e76\u8840\u8102\u5f02\u5e38\u7684\u60a3\u8005\uff0c\u4e3a\u8fdb\u4e00\u6b65\u6444\u5165\u80c6\u56fa\u9187\u6444\u5165\uff0c\u6700\u597d\u6bcf\u5929\u5403\u534a\u4e2a\u9e21\u86cb\uff08\u6216\u6bcf\u5468\u54032\uff5e3\u4e2a\uff09\u3002",
        "category_id": "2"
      },
      {
        "name": "\u725b\u5976",
        "quality": 0,
        "glycemicIndex": "28",
        "level": -1,
        "imgUrl": "http:\/\/p.qpic.cn\/byb_pic\/iaKgb8kFDD3ZkibWrpTxXEib9NpTTibAY0F7gn7WnvGqkgSPqtyWXe8SwfNFGIjiaret2lGpfMPg3U2A\/120",
        "content": "\n\u4e0d\u4ec5\u4e2d\u56fd\u7cd6\u5c3f\u75c5\u533b\u5b66\u8425\u517b\u6307\u5357\u6216\u662f\u4e2d\u56fd\u81b3\u98df\u6307\u5357\u90fd\u63a8\u8350\u7cd6\u5c3f\u75c5\u4eba\u996e\u7528\u9009\u62e9\u5976\u7c7b\u53ca\u5976\u7c7b\u5236\u54c1\uff0c\u9996\u5148\u662f\u56e0\u4e3a\u5b83\u4eec\u5177\u6709\u5f88\u9ad8\u7684\u8425\u517b\u4ef7\u503c\uff0c\u5176\u6240\u542b\u4f18\u8d28\u86cb\u767d\u3001\u9499\u3001\u7ef4\u751f\u7d20\u7b49\u90fd\u662f\u7cd6\u5c3f\u75c5\u60a3\u8005\u9700\u8981\u7684\u3002\u5176\u6b21\u5976\u7c7b\u7684\u5347\u7cd6\u6307\u6570\u4e5f\u8f83\u4f4e\uff0c\u6709\u76ca\u4e8e\u63a7\u5236\u9910\u540e\u8840\u7cd6\u3002\u4e5f\u6709\u7814\u7a76\u6307\u51fa\u7f3a\u9499\u548c\u7ef4\u751f\u7d20D\u4f1a\u5bf9\u8840\u7cd6\u4ea7\u751f\u8d1f\u9762\u7684\u5f71\u54cd\uff0c\u800c\u6444\u5165\u5145\u8db3\u7684\u9499\u548c\u7ef4\u751f\u7d20D\u6709\u52a9\u4e8e\u6539\u5584\u7cd6\u4ee3\u8c22\u3002\u56e0\u6b64\uff0c\u5efa\u8bae\u7cd6\u5c3f\u75c5\u4eba\u6bcf\u5929\u996e\u5976200\u514b\uff5e300\u514b\uff08\u6beb\u5347\uff09\uff0c\u4e0d\u559d\u5976\u7684\u4eba\u5e94\u589e\u52a0\u5927\u8c46\u5236\u54c1\u7684\u6444\u5165\u91cf\u3002",
        "category_id": "2"
      },
      {
        "name": "\u5168\u8102\u725b\u5976",
        "quality": 0,
        "glycemicIndex": "27",
        "level": -1,
        "imgUrl": "http:\/\/p.qpic.cn\/byb_pic\/MnWQ9awO2riaGCB5GgY7Xyt91eG9CsAuDcbkoF2qDVwnRxniacSVCvsshiabAulcibicSQUmAiaYCX8Mo\/120",
        "content": "\n\u4e0d\u4ec5\u4e2d\u56fd\u7cd6\u5c3f\u75c5\u533b\u5b66\u8425\u517b\u6307\u5357\u6216\u662f\u4e2d\u56fd\u81b3\u98df\u6307\u5357\u90fd\u63a8\u8350\u7cd6\u5c3f\u75c5\u4eba\u996e\u7528\u9009\u62e9\u5976\u7c7b\u53ca\u5976\u7c7b\u5236\u54c1\uff0c\u9996\u5148\u662f\u56e0\u4e3a\u5b83\u4eec\u5177\u6709\u5f88\u9ad8\u7684\u8425\u517b\u4ef7\u503c\uff0c\u5176\u6240\u542b\u4f18\u8d28\u86cb\u767d\u3001\u9499\u3001\u7ef4\u751f\u7d20\u7b49\u90fd\u662f\u7cd6\u5c3f\u75c5\u60a3\u8005\u9700\u8981\u7684\u3002\u5176\u6b21\u5976\u7c7b\u7684\u5347\u7cd6\u6307\u6570\u4e5f\u8f83\u4f4e\uff0c\u6709\u76ca\u4e8e\u63a7\u5236\u9910\u540e\u8840\u7cd6\u3002\u4e5f\u6709\u7814\u7a76\u6307\u51fa\u7f3a\u9499\u548c\u7ef4\u751f\u7d20D\u4f1a\u5bf9\u8840\u7cd6\u4ea7\u751f\u8d1f\u9762\u7684\u5f71\u54cd\uff0c\u800c\u6444\u5165\u5145\u8db3\u7684\u9499\u548c\u7ef4\u751f\u7d20D\u6709\u52a9\u4e8e\u6539\u5584\u7cd6\u4ee3\u8c22\u3002\u56e0\u6b64\uff0c\u5efa\u8bae\u7cd6\u5c3f\u75c5\u4eba\u6bcf\u5929\u996e\u5976200\u514b\uff5e300\u514b\uff08\u6beb\u5347\uff09\uff0c\u4e0d\u559d\u5976\u7684\u4eba\u5e94\u589e\u52a0\u5927\u8c46\u5236\u54c1\u7684\u6444\u5165\u91cf\u3002\u5976\u7c7b\u542b\u8102\u80aa\u91cf\u4e3a3\uff5e4%\uff0c\u4ee5\u9971\u548c\u8102\u80aa\u9178\u4e3a\u4e3b\uff0c\u6240\u4ee5\uff0c\u8840\u8102\u5f02\u5e38\u6216\u80a5\u80d6\u7684\u7cd6\u5c3f\u75c5\u4eba\uff0c\u5e94\u9009\u62e9\u80dd\u8102\u6216\u8131\u8102\u5976\u53ca\u5176\u5236\u54c1\u3002",
        "category_id": "2"
      },
      {
        "name": "\u4f4e\u8102\u725b\u5976",
        "quality": 0,
        "glycemicIndex": "12",
        "level": -1,
        "imgUrl": "http:\/\/p.qpic.cn\/byb_pic\/oB874Nvq8wWrXZz2d77sb3tRnOSAWhsOQeGoof8quqJjc6pTNEsXNpHTCpu2LibNZYeTWVbWVcII\/120",
        "content": "\n\u4e0d\u4ec5\u4e2d\u56fd\u7cd6\u5c3f\u75c5\u533b\u5b66\u8425\u517b\u6307\u5357\u6216\u662f\u4e2d\u56fd\u81b3\u98df\u6307\u5357\u90fd\u63a8\u8350\u7cd6\u5c3f\u75c5\u4eba\u996e\u7528\u9009\u62e9\u5976\u7c7b\u53ca\u5976\u7c7b\u5236\u54c1\uff0c\u9996\u5148\u662f\u56e0\u4e3a\u5b83\u4eec\u5177\u6709\u5f88\u9ad8\u7684\u8425\u517b\u4ef7\u503c\uff0c\u5176\u6240\u542b\u4f18\u8d28\u86cb\u767d\u3001\u9499\u3001\u7ef4\u751f\u7d20\u7b49\u90fd\u662f\u7cd6\u5c3f\u75c5\u60a3\u8005\u9700\u8981\u7684\u3002\u5176\u6b21\u5976\u7c7b\u7684\u5347\u7cd6\u6307\u6570\u4e5f\u8f83\u4f4e\uff0c\u6709\u76ca\u4e8e\u63a7\u5236\u9910\u540e\u8840\u7cd6\u3002\u4e5f\u6709\u7814\u7a76\u6307\u51fa\u7f3a\u9499\u548c\u7ef4\u751f\u7d20D\u4f1a\u5bf9\u8840\u7cd6\u4ea7\u751f\u8d1f\u9762\u7684\u5f71\u54cd\uff0c\u800c\u6444\u5165\u5145\u8db3\u7684\u9499\u548c\u7ef4\u751f\u7d20D\u6709\u52a9\u4e8e\u6539\u5584\u7cd6\u4ee3\u8c22\u3002\u56e0\u6b64\uff0c\u5efa\u8bae\u7cd6\u5c3f\u75c5\u4eba\u6bcf\u5929\u996e\u5976200\u514b\uff5e300\u514b\uff08\u6beb\u5347\uff09\uff0c\u4e0d\u559d\u5976\u7684\u4eba\u5e94\u589e\u52a0\u5927\u8c46\u5236\u54c1\u7684\u6444\u5165\u91cf\u3002\u5976\u7c7b\u542b\u8102\u80aa\u91cf\u4e3a3\uff5e4%\uff0c\u4ee5\u9971\u548c\u8102\u80aa\u9178\u4e3a\u4e3b\uff0c\u6240\u4ee5\uff0c\u8840\u8102\u5f02\u5e38\u6216\u80a5\u80d6\u7684\u7cd6\u5c3f\u75c5\u4eba\uff0c\u5e94\u9009\u62e9\u80dd\u8102\u6216\u8131\u8102\u5976\u53ca\u5176\u5236\u54c1\u3002",
        "category_id": "2"
      },
      {
        "name": "\u8131\u8102\u725b\u5976",
        "quality": 0,
        "glycemicIndex": "32",
        "level": -1,
        "imgUrl": "http:\/\/p.qpic.cn\/byb_pic\/knjiaE6ZewqKiavs6WJQLVxYEzy8ibwd4s43hx7iaibC3wz6BDzKkNupz2Ecm3DotoWkS6hJ0EZsQucw\/120",
        "content": "\n\u4e0d\u4ec5\u4e2d\u56fd\u7cd6\u5c3f\u75c5\u533b\u5b66\u8425\u517b\u6307\u5357\u6216\u662f\u4e2d\u56fd\u81b3\u98df\u6307\u5357\u90fd\u63a8\u8350\u7cd6\u5c3f\u75c5\u4eba\u996e\u7528\u9009\u62e9\u5976\u7c7b\u53ca\u5976\u7c7b\u5236\u54c1\uff0c\u9996\u5148\u662f\u56e0\u4e3a\u5b83\u4eec\u5177\u6709\u5f88\u9ad8\u7684\u8425\u517b\u4ef7\u503c\uff0c\u5176\u6240\u542b\u4f18\u8d28\u86cb\u767d\u3001\u9499\u3001\u7ef4\u751f\u7d20\u7b49\u90fd\u662f\u7cd6\u5c3f\u75c5\u60a3\u8005\u9700\u8981\u7684\u3002\u5176\u6b21\u5976\u7c7b\u7684\u5347\u7cd6\u6307\u6570\u4e5f\u8f83\u4f4e\uff0c\u6709\u76ca\u4e8e\u63a7\u5236\u9910\u540e\u8840\u7cd6\u3002\u4e5f\u6709\u7814\u7a76\u6307\u51fa\u7f3a\u9499\u548c\u7ef4\u751f\u7d20D\u4f1a\u5bf9\u8840\u7cd6\u4ea7\u751f\u8d1f\u9762\u7684\u5f71\u54cd\uff0c\u800c\u6444\u5165\u5145\u8db3\u7684\u9499\u548c\u7ef4\u751f\u7d20D\u6709\u52a9\u4e8e\u6539\u5584\u7cd6\u4ee3\u8c22\u3002\u56e0\u6b64\uff0c\u5efa\u8bae\u7cd6\u5c3f\u75c5\u4eba\u6bcf\u5929\u996e\u5976200\u514b\uff5e300\u514b\uff08\u6beb\u5347\uff09\uff0c\u4e0d\u559d\u5976\u7684\u4eba\u5e94\u589e\u52a0\u5927\u8c46\u5236\u54c1\u7684\u6444\u5165\u91cf\u3002\u5976\u7c7b\u542b\u8102\u80aa\u91cf\u4e3a3\uff5e5%\uff0c\u4ee5\u9971\u548c\u8102\u80aa\u9178\u4e3a\u4e3b\uff0c\u6240\u4ee5\uff0c\u8840\u8102\u5f02\u5e38\u6216\u80a5\u80d6\u7684\u7cd6\u5c3f\u75c5\u4eba\uff0c\u5e94\u9009\u62e9\u80dd\u8102\u6216\u8131\u8102\u5976\u53ca\u5176\u5236\u54c1\u3002",
        "category_id": "2"
      }
    ]
  },
  {
    "name": "蔬菜类",
    "list": [
      {
        "name": "\u8334\u9999",
        "quality": 0,
        "glycemicIndex": "0",
        "level": -1,
        "imgUrl": "http:\/\/p.qpic.cn\/byb_pic\/iaCVGibHxIhVhIT7AgY8kxC3Y9ibsxcb7sxTd5rtXuNthQ7SL7N9UvJ2hicpy6SFU4JYc7NBYc8xc0I\/120",
        "content": "\u5efa\u8bae\u5927\u5bb6\u4f7f\u7528\u8334\u9999\u642d\u8089\u505a\u9985\u65f6\uff0c\u8981\u6ce8\u610f\u4f7f\u7528\u98df\u7269\u6cb9\u7684\u6bd4\u8f83\u548c\u5206\u91cf\uff0c\u6309\u5e73\u65f6\u7cd6\u5c3f\u75c5\u4eba\u4f7f\u7528\u6cb9\u8102\u539f\u5219\u5219\u53ef\u3002",
        "category_id": "3"
      },
      {
        "name": "\u9e21\u6bdb\u83dc",
        "quality": 0,
        "glycemicIndex": "0",
        "level": -1,
        "imgUrl": "http:\/\/p.qpic.cn\/byb_pic\/RlORrl5WG7jhYA76fHJLIPhfPlB3HdiahiaZH01uJxZQXT6JuwhvF6xnMWbbibiajYricdbf38A7ibiaicI\/120",
        "content": "\n\u9e21\u6bdb\u83dc\u4e2d\u542b\u6709\u5927\u91cf\u7ea4\u7ef4\uff0c\u5176\u8fdb\u5165\u4eba\u4f53\u5185\u4e0e\u8102\u80aa\u7ed3\u5408\u540e\uff0c\u53ef\u9632\u6b62\u8840\u6d46\u80c6\u56fa\u9187\u5f62\u6210\uff0c\u4fc3\u4f7f\u80c6\u56fa\u9187\u4ee3\u8c22\u7269\u80c6\u9178\u5f97\u4ee5\u6392\u51fa\u4f53\u5916\uff0c\u4ee5\u51cf\u5c11\u52a8\u8109\u7ca5\u6837\u786c\u5316\u7684\u5f62\u6210\uff0c\u4ece\u800c\u4fdd\u6301\u8840\u7ba1\u5f39\u6027\u3002",
        "category_id": "3"
      },
      {
        "name": "\u7518\u85af\u53f6",
        "quality": 0,
        "glycemicIndex": "0",
        "level": -1,
        "imgUrl": "http:\/\/p.qpic.cn\/byb_pic\/ib1CTJ5H8TbynC8zrPTJtAhoib3dwGRP7seibQNdct3gTC7LwFVCCSvQV3RKPGmv9oevKkeQQqTFps\/120",
        "content": "\n\u4e30\u5bcc\u7684\u81b3\u98df\u7ea4\u7ef4\uff0c\u53ef\u4fc3\u8fdb\u80a0\u80c3\u8815\u52a8\uff0c\u9884\u9632\u201c\u4fbf\u79d8\u53ca\u75d4\u75ae\u201d\uff1b\u5bcc\u542b\u94be\uff0c\u6709\u52a9\u8840\u538b\u63a7\u5236\uff0c\u9884\u9632\u9ad8\u8840\u538b\u3002",
        "category_id": "3"
      },
      {
        "name": "\u846b\u82a6",
        "quality": 0,
        "glycemicIndex": "0",
        "level": -1,
        "imgUrl": "http:\/\/p.qpic.cn\/byb_pic\/Z6vBPic0QCJDl2s1Opakny0B5Xp3t8iblm9YhhgBSgISfHqA6fPylBXfjoCxIPxWjy6PUJln0Nvp0\/120",
        "content": "\n\u846b\u82a6\u5728\u590f\u5929\u76db\u4ea7\uff0c\u662f\u65e5\u5e38\u8865\u5145\u6c34\u4efd\u3001\u65e0\u673a\u76d0\u7684\u7406\u60f3\u852c\u679c\u3002",
        "category_id": "3"
      },
      {
        "name": "\u84b2\u74dc",
        "quality": 0,
        "glycemicIndex": "0",
        "level": -1,
        "imgUrl": "http:\/\/p.qpic.cn\/byb_pic\/U1ozGgOCoPdxdLkfvyV8nO72wzdQQJUwfPW5Vv8qUc1QHXWibepibyaSouzGxDTVxIIdbmkkUibibp8\/120",
        "content": "\n\u84b2\u74dc\u5728\u590f\u5929\u76db\u4ea7\uff0c\u662f\u65e5\u5e38\u8865\u5145\u6c34\u4efd\u3001\u65e0\u673a\u76d0\u7684\u7406\u60f3\u852c\u679c\u3002",
        "category_id": "3"
      },
      {
        "name": "\u767d\u74dc",
        "quality": 0,
        "glycemicIndex": "0",
        "level": -1,
        "imgUrl": "http:\/\/p.qpic.cn\/byb_pic\/s2uZhDwnfmnguaF8dkZusu4nLrq5qOHVFUX4ADAehCDf2LahwuOiaxK1mrYkhic856aCpgQJ5HJOY\/120",
        "content": "\n\u767d\u74dc\u5728\u590f\u5929\u76db\u4ea7\uff0c\u662f\u65e5\u5e38\u8865\u5145\u6c34\u4efd\u3001\u65e0\u673a\u76d0\u7684\u7406\u60f3\u852c\u679c\u3002",
        "category_id": "3"
      },
      {
        "name": "\u8378\u8360",
        "quality": 0,
        "glycemicIndex": "0",
        "level": -1,
        "imgUrl": "http:\/\/p.qpic.cn\/byb_pic\/rgBAibuoz4VML8wMAibnV13micFdHy94ePWtOX8IbnibhwXibibsJ83Rnib7jiaT14fuMpQWUDAVwIWnicy8\/120",
        "content": "\n\u7cd6\u5c3f\u75c5\u4eba\u9009\u62e9\u98df\u7528\u65f6\uff0c\u63a8\u83505\u4e2a\u5373\u53ef\uff0c\u5403\u591a\u4ecd\u7136\u4f1a\u5f71\u54cd\u8840\u7cd6\u6ce2\u52a8\u3002",
        "category_id": "3"
      },
      {
        "name": "\u83dc\u5fc3",
        "quality": 0,
        "glycemicIndex": "0",
        "level": -1,
        "imgUrl": "http:\/\/p.qpic.cn\/byb_pic\/oKh3btYS4xvyqKQnQqptO0tpP4DVtIqZWvicyVc4FibhvIbZLiaHu5ejJHibG0AqQSk6Jk5urQPGuUA\/120",
        "content": "\u662f\u6211\u56fd\u5357\u65b9\u7684\u7279\u4ea7\u852c\u83dc\u4e4b\u4e00\u3002\u4e00\u5e74\u56db\u5b63\u5747\u53ef\u64ad\u79cd\uff0c\u73b0\u4e16\u754c\u5404\u5730\u5747\u6709\u5f15\u79cd\u683d\u57f9\u3002",
        "category_id": "3"
      },
      {
        "name": "\u7d2b\u83dc",
        "quality": 0,
        "glycemicIndex": "0",
        "level": -1,
        "imgUrl": "http:\/\/p.qpic.cn\/byb_pic\/psEB4K6YCnIrtawxsDxx0apiaUbz1ib6suszryFKvQwiagJViabE9SUwCcMABFGuUxuLmicgfoV3T5mw\/120",
        "content": "\n\u63a8\u8350\u7cd6\u5c3f\u75c5\u4eba\u9009\u62e9\u3002",
        "category_id": "3"
      },
      {
        "name": "\u8349\u83c7",
        "quality": 0,
        "glycemicIndex": "0",
        "level": -1,
        "imgUrl": "http:\/\/p.qpic.cn\/byb_pic\/aG4AwiaO6sibcwLrfrEqKh9kykqQLFQYaJcpfzsN3qUkMmElo8ENXiboeK4URibZ8B2S6o2YLQEAwDg\/120",
        "content": "\n\u63a8\u8350\u7cd6\u5c3f\u75c5\u4eba\u7ecf\u5e38\u98df\u7528\u3002\u5404\u79cd\u65b0\u9c9c\u7684\u83cc\u7c7b\u6216\u8611\u83c7\u7c7b\u5c5e\u4e8e\u4e2d\u4f4e\u560c\u5464\u542b\u91cf\u7684\u98df\u7269\uff0c\u5373\u4f7f\u6709\u75db\u98ce\u548c\u9ad8\u5c3f\u9178\u8840\u75c7\u7684\u7cd6\u5c3f\u75c5\u4eba\uff0c\u5982\u679c\u4e0d\u662f\u5728\u6025\u6027\u53d1\u4f5c\u671f\uff0c\u4e5f\u53ef\u9002\u5f53\u9009\u62e9\u98df\u7528\u3002",
        "category_id": "3"
      },
      {
        "name": "\u91d1\u9488\u83c7",
        "quality": 0,
        "glycemicIndex": "0",
        "level": -1,
        "imgUrl": "http:\/\/p.qpic.cn\/byb_pic\/1iajbp1eE1THSeJ4c0hVNiam3bJehKxNkgdYJYkuTB3kP0Br7EBPQlDwI9icEjiaZ1g86Ria3Dds4rzg\/120",
        "content": "\n\u63a8\u8350\u7cd6\u5c3f\u75c5\u4eba\u7ecf\u5e38\u98df\u7528\u3002\u5404\u79cd\u65b0\u9c9c\u7684\u83cc\u7c7b\u6216\u8611\u83c7\u7c7b\u5c5e\u4e8e\u4e2d\u4f4e\u560c\u5464\u542b\u91cf\u7684\u98df\u7269\uff0c\u5373\u4f7f\u6709\u75db\u98ce\u548c\u9ad8\u5c3f\u9178\u8840\u75c7\u7684\u7cd6\u5c3f\u75c5\u4eba\uff0c\u5982\u679c\u4e0d\u662f\u5728\u6025\u6027\u53d1\u4f5c\u671f\uff0c\u4e5f\u53ef\u9002\u5f53\u9009\u62e9\u98df\u7528\u3002",
        "category_id": "3"
      },
      {
        "name": "\u53cc\u5b62\u83c7",
        "quality": 0,
        "glycemicIndex": "0",
        "level": -1,
        "imgUrl": "http:\/\/p.qpic.cn\/byb_pic\/jnniceSZCHVTkrfbdR2yROgv3zypFtL2nz6VpoToaILvMU67hKKiaJdjhvibxibnibYq7ISKga7gvIhc\/120",
        "content": "\n\u63a8\u8350\u7cd6\u5c3f\u75c5\u4eba\u7ecf\u5e38\u98df\u7528\u3002\u5404\u79cd\u65b0\u9c9c\u7684\u83cc\u7c7b\u6216\u8611\u83c7\u7c7b\u5c5e\u4e8e\u4e2d\u4f4e\u560c\u5464\u542b\u91cf\u7684\u98df\u7269\uff0c\u5373\u4f7f\u6709\u75db\u98ce\u548c\u9ad8\u5c3f\u9178\u8840\u75c7\u7684\u7cd6\u5c3f\u75c5\u4eba\uff0c\u5982\u679c\u4e0d\u662f\u5728\u6025\u6027\u53d1\u4f5c\u671f\uff0c\u4e5f\u53ef\u9002\u5f53\u9009\u62e9\u98df\u7528\u3002",
        "category_id": "3"
      },
      {
        "name": "\u5e73\u83c7(\u9c9c)",
        "quality": 0,
        "glycemicIndex": "0",
        "level": -1,
        "imgUrl": "http:\/\/p.qpic.cn\/byb_pic\/XCCicOyFaNNvZp42zo0buefKbxUa7tI8a3ySM3ib8ZrVXMZczIVUicYLmAjJ21kZpKvNJb1QictEu3I\/120",
        "content": "\n\u63a8\u8350\u7cd6\u5c3f\u75c5\u4eba\u7ecf\u5e38\u98df\u7528\u3002\u5404\u79cd\u65b0\u9c9c\u7684\u83cc\u7c7b\u6216\u8611\u83c7\u7c7b\u5c5e\u4e8e\u4e2d\u4f4e\u560c\u5464\u542b\u91cf\u7684\u98df\u7269\uff0c\u5373\u4f7f\u6709\u75db\u98ce\u548c\u9ad8\u5c3f\u9178\u8840\u75c7\u7684\u7cd6\u5c3f\u75c5\u4eba\uff0c\u5982\u679c\u4e0d\u662f\u5728\u6025\u6027\u53d1\u4f5c\u671f\uff0c\u4e5f\u53ef\u9002\u5f53\u9009\u62e9\u98df\u7528\u3002",
        "category_id": "3"
      },
      {
        "name": "\u7334\u5934\u83c7(\u9c9c)",
        "quality": 0,
        "glycemicIndex": "0",
        "level": -1,
        "imgUrl": "http:\/\/p.qpic.cn\/byb_pic\/yWulvEX4n1whjkLYicT4LRWKYnziaWlQRldGEeV9iaAInO6UGMiaRcLKMsDv7C8sIanMV5tJF0y1OZs\/120",
        "content": "\n\u63a8\u8350\u7cd6\u5c3f\u75c5\u4eba\u7ecf\u5e38\u98df\u7528\u3002\u5404\u79cd\u65b0\u9c9c\u7684\u83cc\u7c7b\u6216\u8611\u83c7\u7c7b\u5c5e\u4e8e\u4e2d\u4f4e\u560c\u5464\u542b\u91cf\u7684\u98df\u7269\uff0c\u5373\u4f7f\u6709\u75db\u98ce\u548c\u9ad8\u5c3f\u9178\u8840\u75c7\u7684\u7cd6\u5c3f\u75c5\u4eba\uff0c\u5982\u679c\u4e0d\u662f\u5728\u6025\u6027\u53d1\u4f5c\u671f\uff0c\u4e5f\u53ef\u9002\u5f53\u9009\u62e9\u98df\u7528\u3002",
        "category_id": "3"
      },
      {
        "name": "\u7f8a\u809a\u83cc(\u5e72)",
        "quality": 0,
        "glycemicIndex": "0",
        "level": -1,
        "imgUrl": "http:\/\/p.qpic.cn\/byb_pic\/YSPN87mlciaJA6HaSo62bOCvYFjqrOsrWLxuZAQvaIJyCCnVEaGmOvrtWGibTjqaAuBqvjTeCRf3Q\/120",
        "content": "\n\u63a8\u8350\u7cd6\u5c3f\u75c5\u4eba\u7ecf\u5e38\u98df\u7528\u3002\u5404\u79cd\u65b0\u9c9c\u7684\u83cc\u7c7b\u6216\u8611\u83c7\u7c7b\u5c5e\u4e8e\u4e2d\u4f4e\u560c\u5464\u542b\u91cf\u7684\u98df\u7269\uff0c\u5373\u4f7f\u6709\u75db\u98ce\u548c\u9ad8\u5c3f\u9178\u8840\u75c7\u7684\u7cd6\u5c3f\u75c5\u4eba\uff0c\u5982\u679c\u4e0d\u662f\u5728\u6025\u6027\u53d1\u4f5c\u671f\uff0c\u4e5f\u53ef\u9002\u5f53\u9009\u62e9\u98df\u7528\u3002",
        "category_id": "3"
      },
      {
        "name": "\u94f6\u8033(\u5e72)",
        "quality": 0,
        "glycemicIndex": "0",
        "level": -1,
        "imgUrl": "http:\/\/p.qpic.cn\/byb_pic\/kY5C3KcicASBSD5PW9FeFCFSd5TicjqcrFbjFpbpibYcRWZFzo4ZQ4VwRZnyFtYPgyxxXYvIyIAYRY\/120",
        "content": "\n\u63a8\u8350\u7cd6\u5c3f\u75c5\u4eba\u7ecf\u5e38\u98df\u7528\u3002\u5404\u79cd\u65b0\u9c9c\u7684\u83cc\u7c7b\u6216\u8611\u83c7\u7c7b\u5c5e\u4e8e\u4e2d\u4f4e\u560c\u5464\u542b\u91cf\u7684\u98df\u7269\uff0c\u5373\u4f7f\u6709\u75db\u98ce\u548c\u9ad8\u5c3f\u9178\u8840\u75c7\u7684\u7cd6\u5c3f\u75c5\u4eba\uff0c\u5982\u679c\u4e0d\u662f\u5728\u6025\u6027\u53d1\u4f5c\u671f\uff0c\u4e5f\u53ef\u9002\u5f53\u9009\u62e9\u98df\u7528\u3002",
        "category_id": "3"
      },
      {
        "name": "\u53d1\u83dc(\u5e72)",
        "quality": 0,
        "glycemicIndex": "0",
        "level": -1,
        "imgUrl": "http:\/\/p.qpic.cn\/byb_pic\/eialgJI6V8S5zYARReL3JrTkIO5KKZEgZ0bibibc12PoyJsShs035iacgWFwRPp7mTsAxQgE6y0pg98\/120",
        "content": "\n\u53d1\u83dc\u662f\u56fd\u5bb6\u2160\u7ea7\u91cd\u70b9\u4fdd\u62a4\u91ce\u751f\u690d\u7269\uff0c\u56e0\u6b64\uff0c\u4e0d\u63a8\u8350\u7cd6\u5c3f\u75c5\u9009\u62e9\u3002",
        "category_id": "3"
      },
      {
        "name": "\u79cb\u8475",
        "quality": 0,
        "glycemicIndex": "0",
        "level": -1,
        "imgUrl": "http:\/\/p.qpic.cn\/byb_pic\/HVpAU5lFjiccx7PeOQrnathb9MWLrQGibT1icRbKR8E9IicFpepibTPXRqPDLkDuMLblE7vFw8UyN0DU\/120",
        "content": "\n\u79cb\u8475\u7684\u9ecf\u6db2\u4e2d\u542b\u6709\u6c34\u6eb6\u6027\u679c\u80f6\u4e0e\u9ecf\u86cb\u767d\uff0c\u80fd\u51cf\u7f13\u7cd6\u5206\u5438\u6536\uff0c\u51cf\u4f4e\u4eba\u4f53\u5bf9\u80f0\u5c9b\u7d20\u7684\u9700\u6c42\uff0c\u6291\u5236\u80c6\u56fa\u9187\u5438\u6536\uff0c\u80fd\u6539\u5584\u8840\u8102\uff0c\u8fd8\u53ef\u4fdd\u62a4\u80c3\u80a0\u9053\uff0c\u975e\u5e38\u9002\u5b9c\u7cd6\u5c3f\u75c5\u80c3\u8f7b\u762b\u7684\u60a3\u8005\u3002",
        "category_id": "3"
      },
      {
        "name": "\u8fa3\u6912",
        "quality": 0,
        "glycemicIndex": "0",
        "level": -1,
        "imgUrl": "http:\/\/p.qpic.cn\/byb_pic\/njHCacu1GZ29wficuk4QPU3YzauE5ib854eZSxSv2lk2LSl6erpYmgQBZso5ZINjeYM8wqdPv2rms\/120",
        "content": "\u8fa3\u6912\u7d20\u80fd\u663e\u8457\u964d\u4f4e\u8840\u7cd6\u6c34\u5e73\u3002\u4e0d\u59a8\u4e5f\u53ef\u4ee5\u8bd5\u8bd5\uff0c\u53ea\u8981\u9002\u91cf\u996e\u98df\u5373\u53ef\u3002",
        "category_id": "3"
      },
      {
        "name": "\u7d2b\u751f\u83dc",
        "quality": 0,
        "glycemicIndex": "0",
        "level": -1,
        "imgUrl": "http:\/\/p.qpic.cn\/byb_pic\/VrqgSkibfAiblhQJ8omdicJtJAjmpbEIjvhsAkibkK5CjwXTrDK5VptibgzRcRJJEmW2vp9TcLXExhLM\/120",
        "content": "\n\u852c\u83dc\u4e2d\u542b\u6709\u591a\u79cd\u8425\u517b\u6210\u5206\uff0c\u5176\u4e3b\u8981\u8981\u8425\u517b\u7279\u70b9\u5982\u4e0b\uff1a1\uff09\u6c34\u5206\u2015\u65b0\u9c9c\u852c\u83dc\u7684\u542b\u6c34\u91cf\u572890\uff05\u4ee5\u4e0a\uff0c\u5b83\u662f\u852c\u83dc\u9c9c\u5ae9\u7a0b\u5ea6\u7684\u6807\u5fd7\u30022\uff09\u7ef4\u751f\u7d20\u2015\u7eff\u8272\u3001\u6a59\u8272\u852c\u83dc\u4e2d\u542b\u6709\u8f83\u591a\u7684\u80e1\u841d\u535c\u7d20\u3001\u7ef4\u751f\u7d20c\u3001\u6838\u9ec4\u7d20\u53ca\u53f6\u9178\u30023\uff09\u65e0\u673a\u76d0\u2015\u852c\u83dc\u662f\u65e0\u673a\u76d0\u7684\u91cd\u8981\u6765\u6e90\u3002\u7eff\u8272\u852c\u83dc\u542b\u91cf\u6700\u4e3a\u4e30\u5bcc\u30024\uff09\u98df\u7269\u7ea4\u7ef4\u2015\u5404\u79cd\u852c\u83dc\u90fd\u542b\u6709\uff0c\u5b83\u6709\u4fc3\u8fdb\u80a0\u9053\u8815\u52a8\u3001\u964d\u4f4e\u80c6\u56fa\u9187\u548c\u6539\u5584\u7cd6\u4ee3\u8c22\u7b49\u4f5c\u7528\u3002 \u56e0\u6b64\uff0c\u852c\u83dc\u5c5e\u4e8e\u70ed\u91cf\u4f4e\u3001\u8840\u7cd6\u751f\u6210\u6307\u6570\u4f4e\u3001\u8425\u517b\u4ef7\u503c\u9ad8\u7684\u98df\u7269\uff0c\u975e\u5e38\u9002\u5408\u7cd6\u5c3f\u75c5\u4eba\u9009\u62e9\u3002\u5efa\u8bae\u7cd6\u5c3f\u75c5\u4eba\u6bcf\u65e5\u81f3\u5c11\u9009\u62e9\u98df\u7528500\u514b\uff0c\u53e6\u5916\uff0c\u74dc\u679c\u7c7b\u7684\u852c\u83dc\u542b\u78b3\u6c34\u5316\u5408\u7269\u542b\u91cf\u6bd4\u7eff\u53f6\u852c\u83dc\u591a\u4e00\u4e9b\uff0c\u800c\u6839\u830e\u7c7b\u852c\u83dc\u3001\u8c46\u7c7b\u852c\u83dc\u6bd4\u74dc\u679c\u7c7b\u852c\u83dc\u7684\u542b\u91cf\u66f4\u591a\u4e00\u4e9b\u3002\u56e0\u6b64\uff0c\u5efa\u8bae\u7cd6\u5c3f\u75c5\u60a3\u8005\u5728\u6bcf\u987f\u9910\u76d8\u4e2d\uff0c\u81f3\u5c11\u4fdd\u6301\u4e00\u534a\u7684\u852c\u83dc\u662f\u7eff\u53f6\u852c\u83dc\u3002\u800c\u7d2b\u751f\u83dc\u662f\u6df1\u8272\u7eff\u53f6\u852c\u83dc\u6700\u5e38\u89c1\u54c1\u79cd\u4e4b\u4e00\uff0c\u5e76\u4e14\u5728\u83dc\u573a\u4e0a\u968f\u624b\u53ef\u5f97\uff0c\u63a8\u8350\u7cd6\u5c3f\u75c5\u4eba\u9009\u62e9\u3002",
        "category_id": "3"
      }
    ]
  },
  {
    "name": "主食",
    "list": [
      {
        "name": "\ufeff\u9eb8\u76ae",
        "quality": 0,
        "glycemicIndex": "0",
        "level": -1,
        "imgUrl": "http:\/\/p.qpic.cn\/byb_pic\/59IIETMxsoA1eEjWFV18wp1C48DlJmXHtn004HPbia68gAJVdib1d1iaBCabvs71l1X2U2KCxy0A94\/120",
        "content": "\u5c0f\u9ea6\u9eb8\u542b\u6709\u4e30\u5bcc\u7684\u81b3\u98df\u7ea4\u7ef4\uff0c\u662f\u4eba\u4f53\u5fc5\u9700\u7684\u8425\u517b\u5143\u7d20\u3002\u9002\u5f53\u98df\u7528\u53ef\u63d0\u9ad8\u98df\u7269\u4e2d\u7684\u7ea4\u7ef4\u6210\u5206\uff0c\u53ef\u6539\u5584\u5927\u4fbf\u79d8\u7ed3\u60c5\u51b5\uff0c\u540c\u65f6\u53ef\u4fc3\u4f7f\u8102\u80aa\u53ca\u6c2e\u7684\u6392\u6cc4\uff0c\u5bf9\u4e34\u5e8a\u5e38\u89c1\u7ea4\u7ef4\u7f3a\u4e4f\u6027\u75be\u75c5\u7684\u9632\u6cbb\u4f5c\u7528\u610f\u4e49\u91cd\u5927\u3002\u7531\u4e8e\u6444\u5165\u4e86\u9ad8\u7ea4\u7ef4\u6210\u5206\uff0c\u53ef\u51cf\u7f13\u7cd6\u7c7b\u7684\u5438\u6536\u901f\u5ea6\uff0c\u4ece\u800c\u964d\u4f4e\u8840\u7cd6\u9ad8\u5cf0\u3002\u82e5\u5728\u5236\u4f5c\u9762\u5305\u8fc7\u7a0b\u4e2d\u6dfb\u52a0\u9eb8\u76ae\uff0c\u53ef\u5236\u4f5c\u9ad8\u7ea4\u7ef4\u9eb8\u76ae\u9762\u5305\uff0c\u589e\u52a0\u559c\u6b22\u98df\u7528\u9762\u5305\u7684\u7cd6\u53cb\uff0c\u964d\u4f4e\u9762\u5305\u7684\u5347\u7cd6\u80fd\u529b\u3002",
        "category_id": "1"
      },
      {
        "name": "\u6cb9\u9762\u7b4b",
        "quality": 0,
        "glycemicIndex": "0",
        "level": -1,
        "imgUrl": "http:\/\/p.qpic.cn\/byb_pic\/3bqfVzgKPbThhO1icMHL24Pkvk7amjb5icEHLdmkAJ9F1jkibjCiaxhRiaLO4wQkqNg4s7V6Tcw5SEfY\/120",
        "content": "\n\u6cb9\u9762\u7b4b\u5bcc\u542b\u86cb\u767d\u8d28\uff0c\u4f46\u662f\u6cb9\u8102\u3001\u70ed\u91cf\u5747\u8f83\u9ad8\uff0c\u56e0\u6b64\uff0c\u7cd6\u5c3f\u75c5\u4eba\u4e0d\u53ef\u8fc7\u591a\u98df\u7528\uff0c\u9002\u91cf\u5c1d\u8bd5\u5373\u53ef\uff0c\u540c\u65f6\u642d\u914d\u4e1d\u74dc\u3001\u80e1\u841d\u535c\u53ef\u5c06\u5347\u7cd6\u6307\u6570\u964d\u4f4e\u3002",
        "category_id": "1"
      },
      {
        "name": "\u7cdc\u5b50\u7c73",
        "quality": 0,
        "glycemicIndex": "0",
        "level": -1,
        "imgUrl": "http:\/\/p.qpic.cn\/byb_pic\/3IEicteMicic3eSBb6g5ANRWChRKLZzN0BKHFSp3betaCa4VOkwMzOMxgCEDqNcgC0YjZibibr90qKSU\/120",
        "content": "\u98df\u7528\u65b9\u6cd5\u53ef\u4e0e\u5927\u7c73\u76f8\u540c\uff0c\u4e5f\u53ef\u7528\u5f00\u6c34\u3001\u51c9\u6c34\u6ce1\u98df\uff08\u7c73\u6c64\u662f\u6e05\u7684\uff09\u3002\u5982\u679c\u548c\u7eff\u8c46\u4ee52\uff1a3\u7684\u6bd4\u642d\u914d\u71ac\u6c64\uff0c\u5219\u5c5e\u4e2d\u533b\u5b66\u4e2d\u7684\u4f20\u7edf\u836f\u81b3\uff0c\u9002\u4e8e\u80a5\u80d6\u75c7\u3001\u7cd6\u5c3f\u75c5\u3001\u5fc3\u8840\u7ba1\u75c5\u3001\u8fd1\u89c6\u3001\u9ad8\u8840\u8102\u3001\u811a\u6c14\u75c5\u4f8b\u3001\u591a\u53d1\u6027\u795e\u7ecf\u708e\u3001\u7ed3\u6838\u75c5\u3001\u7532\u4ea2\u7b49\u6d88\u8017\u6027\u75be\u75c5\u3001\u53e3\u89d2\u708e\u3001\u5507\u708e\u3001\u820c\u708e\u3001\u7751\u7f18\u708e\u3001\u9634\u56ca\u708e\u3001\u6ea2\u8102\u6027\u76ae\u708e\u8005\u98df\u7528\uff0c\u80fd\u8d77\u5230\u5f88\u597d\u7684\u9884\u9632\u548c\u98df\u7597\u4f5c\u7528\u3002",
        "category_id": "1"
      },
      {
        "name": "\u7c73\u996d",
        "quality": 0,
        "glycemicIndex": "88",
        "level": -1,
        "imgUrl": "http:\/\/p.qpic.cn\/byb_pic\/3v2rU1frjCBptNgDKOziav1wvCoLuPW0Gfibb2WUOWl00clicH0O9v5ONiaIL2WZ5co5dQuxrlYqhow\/120",
        "content": "\u767d\u7c73\u996d\u7684\u4e3b\u8981\u6210\u5206\u662f\u6dc0\u7c89\uff0c\u6dc0\u7c89\u6d88\u5316\u5438\u6536\u540e\u5347\u9ad8\u8840\u7cd6\u7684\u53cd\u5e94\u5f88\u5feb(\u7cd6\u6307\u6570\u9ad8\u8fbe87)\uff0c\u4e0d\u5229\u4e8e\u7cd6\u5c3f\u75c5\u60a3\u8005\u7684\u8840\u7cd6\u63a7\u5236\uff0c\u56e0\u6b64\uff0c\u7cd6\u5c3f\u75c5\u60a3\u8005\u5e94\u8be5\u5c11\u5403\u767d\u7c73\u996d(\u7cbe\u5236\u8c37\u7269)\uff0c\u4ee3\u4e4b\u4ee5\u7c97\u7cae(\u6742\u7cae\u3001\u6742\u8c46\u3001\u5168\u8c37)\u3002",
        "category_id": "1"
      },
      {
        "name": "\u5927\u7c73\u7ca5",
        "quality": 0,
        "glycemicIndex": "70",
        "level": -1,
        "imgUrl": "http:\/\/p.qpic.cn\/byb_pic\/dxZxsz9wA1xo1K87NvrvRk6G1cmNMsCLXkqP3dFaUyUhFkDjWCp8xhibbNHkNibicyo1X4XFS3KDMk\/120",
        "content": "\n\u7531\u4e8e\u7c73\u71ac\u6210\u7ca5\u4e4b\u540e\uff0c\u66f4\u5bb9\u6613\u6d88\u5316\u548c\u5438\u6536\uff0c\u4e5f\u5c06\u6dc0\u7c89\u7cca\u5316\uff0c\u56e0\u6b64\uff0c\u4e0d\u5efa\u8bae\u7cd6\u5c3f\u75c5\u4eba\u98df\u7528\u7eaf\u7c73\u7ca5\u3002\u7ca5\u6709\u591a\u79cd\u591a\u6837\uff0c\u8fdc\u8fdc\u4e0d\u6b62\u767d\u7ca5\u4e00\u79cd\u3002\u5404\u79cd\u6742\u7cae\u7ca5\u548c\u8c46\u7ca5\uff0c\u53ea\u8981\u70f9\u8c03\u642d\u914d\u5f97\u5f53\uff0c\u4e0d\u4ec5\u53ef\u4ee5\u559d\uff0c\u751a\u81f3\u53ef\u80fd\u5bf9\u7cd6\u5c3f\u75c5\u4eba\u5927\u6709\u76ca\u5904\u3002\u5403\u7c97\u7cae\u8c46\u7c7b\u6df7\u5408\u7ca5\u7684\u91cd\u5927\u597d\u5904\u5728\u4e8e\uff1a\u8fd9\u7c7b\u7ca5\u98df\u4f53\u79ef\u5927\uff0c\u9971\u8179\u611f\u597d\u3002\u65e2\u4e0d\u50cf\u7c73\u996d\u90a3\u6837\u8fdb\u98df\u901f\u5ea6\u5feb\u3001\u586b\u5145\u6548\u679c\u5dee\uff0c\u4e5f\u4e0d\u50cf\u767d\u7ca5\u90a3\u6837\u80c3\u80a0\u6392\u7a7a\u5feb\uff0c\u5bb9\u6613\u9965\u997f\uff0c\u66f4\u6709\u5229\u4e8e\u7cd6\u5c3f\u75c5\u4eba\u63a7\u5236\u9965\u997f\u611f\u3002",
        "category_id": "1"
      },
      {
        "name": "\u9762\u6761",
        "quality": 0,
        "glycemicIndex": "60",
        "level": -1,
        "imgUrl": "http:\/\/p.qpic.cn\/byb_pic\/WXEDt7p1JodxLuPiarTe8rly5NRDPebgfNd1MP8Z2YlmRx1ODPETcUIjgLmOicWGVlZicE2TIvYRXI\/120",
        "content": "\n\u9664\u4e86\u7c73\u996d\uff0c\u9762\u6761\u662f\u6c11\u4f17\u6700\u5e38\u9009\u62e9\u7684\u4e3b\u98df\u4e4b\u4e00\uff0c\u4f46\u56e0\u5347\u7cd6\u8f83\u9ad8\u3001\u7cd6\u8d1f\u8377\u4e5f\u8f83\u9ad8\uff0c\u56e0\u6b64\u5efa\u8bae\u7cd6\u5c3f\u75c5\u4eba\u9009\u62e9\u9762\u6761\u4f5c\u4e3a\u4e3b\u98df\u65f6\uff0c\u591a\u589e\u52a0\u4e00\u4e9b\u852c\u83dc\u642d\u914d\u800c\u964d\u4f4e\u5347\u7cd6\u901f\u5ea6\u3002 \u76ee\u524d\u4e5f\u6709\u4e00\u4e9b\u6742\u7cae\u5236\u4f5c\u800c\u6210\u7684\u9762\u6761\uff0c\u4f8b\u5982\u839c\u9ea6\u9762\u3001\u7389\u7c73\u9762\u6761\u7b49\uff0c\u5347\u7cd6\u901f\u5ea6\u8f83\u7eaf\u7cbe\u5236\u9762\u7c89\u5236\u4f5c\u800c\u6210\u7684\u9762\u6761\u4f4e\u4e00\u4e9b\u3002",
        "category_id": "1"
      },
      {
        "name": "\u9992\u5934",
        "quality": 0,
        "glycemicIndex": "88",
        "level": -1,
        "imgUrl": "http:\/\/p.qpic.cn\/byb_pic\/njHCacu1GZ2GqLS3RSmnCGorv7jOnhHxWT0b949ib3k7HHGM1da7Fs6xeibhKnT32ZTXuYTX2Fqy8\/120",
        "content": "\n\u4e0d\u5efa\u8bae\u7cd6\u5c3f\u75c5\u9009\u62e9\u9992\u5934\u4f5c\u4e3a\u4e3b\u98df\uff0c\u5e94\u9009\u62e9\u4e00\u4e9b\u6742\u7cae\u5236\u4f5c\u800c\u6210\u7684\u6742\u7cae\u9992\u5934\uff0c\u5982\u5168\u9ea6\u9992\u5934\u3001\u839c\u9ea6\u9992\u5934\u7b49\u3002",
        "category_id": "1"
      },
      {
        "name": "\u6cb9\u6761",
        "quality": 0,
        "glycemicIndex": "75",
        "level": -1,
        "imgUrl": "http:\/\/p.qpic.cn\/byb_pic\/rgRbnb2HJibYcX2MKFmLia0Pr1nE9rPtiab7FzRtfhaBSx1LSB1jZOHm3YoXkVpFdveuU3gBOtTMm8\/120",
        "content": "\n\u56e0\u4e3a\u6cb9\u6761\u7ecf\u8fc7\u6cb9\u70b8\uff0c\u4e0d\u5efa\u8bae\u7cd6\u5c3f\u75c5\u9009\u62e9\u6cb9\u6761\u3002",
        "category_id": "1"
      },
      {
        "name": "\u70e7\u997c",
        "quality": 0,
        "glycemicIndex": "79",
        "level": -1,
        "imgUrl": "http:\/\/p.qpic.cn\/byb_pic\/wFHTiaPyqPnaMDkc8vz2qic45Nks2L0DSP8ibIg8icoOkQ4qdy8wqlOEyJ7nDHGDAh3ayBic2B2mgJXQ\/120",
        "content": "\n\u7531\u4e8e\u70e7\u997c\u5236\u4f5c\u8fc7\u7a0b\u4e2d\u6dfb\u52a0\u98df\u7528\u6cb9\u3001\u7cd6\u3001\u98df\u76d0\u7b49\uff0c\u56e0\u6b64\uff0c\u7cd6\u5c3f\u75c5\u4eba\u9009\u62e9\u65f6\u5e94\u6ce8\u610f\u3002",
        "category_id": "1"
      },
      {
        "name": "\u997a\u5b50",
        "quality": 0,
        "glycemicIndex": "28",
        "level": -1,
        "imgUrl": "http:\/\/p.qpic.cn\/byb_pic\/4JQthZz2cV1dsMWRTU9ZjZSxic5bPCTiaAQBJfjZo8WxGiaLp2iauCUSAjV1icLQO7DuMPjoASVVJFqs\/120",
        "content": "\n\u997a\u5b50\u7684\u5236\u4f5c\u539f\u6599\u8425\u517b\u7d20\u79cd\u7c7b\u9f50\u5168\uff0c\u84b8\u716e\u6cd5\u4fdd\u8bc1\u8425\u517b\u8f83\u5c11\u6d41\u5931\uff0c\u5e76\u4e14\u7b26\u5408\u4e2d\u56fd\u8272\u9999\u5473\u996e\u98df\u6587\u5316\u7684\u5185\u6db5\u3002\u7cd6\u5c3f\u75c5\u4eba\u53ef\u6839\u636e\u559c\u597d\u9009\u62e9\u559c\u6b22\u7684\u53e3\u5473\uff0c\u5e94\u5c06\u997a\u5b50\u5f53\u4f5c\u4e3b\u98df\uff0c\u4e00\u822c\u9009\u62e98\uff5e15\u4e2a\u4e3a\u9002\u5b9c\uff0c\u5373\u53ef\u4f5c\u4e3a\u6b63\u9910\u3002",
        "category_id": "1"
      },
      {
        "name": "\u9984\u9968",
        "quality": 0,
        "glycemicIndex": "28",
        "level": -1,
        "imgUrl": "http:\/\/p.qpic.cn\/byb_pic\/aG4AwiaO6sibdzsDQZP3UukkvrnvqFqRKdZbHl3vGibx6GPFYgibJXl64IMQJl5Z976Mvd9UreF7VmI\/120",
        "content": "\n\u9984\u9968\u7684\u5236\u4f5c\u539f\u6599\u8425\u517b\u7d20\u79cd\u7c7b\u9f50\u5168\uff0c\u84b8\u716e\u6cd5\u4fdd\u8bc1\u8425\u517b\u8f83\u5c11\u6d41\u5931\uff0c\u5e76\u4e14\u7b26\u5408\u4e2d\u56fd\u8272\u9999\u5473\u996e\u98df\u6587\u5316\u7684\u5185\u6db5\u3002\u7cd6\u5c3f\u75c5\u4eba\u53ef\u6839\u636e\u559c\u597d\u9009\u62e9\u559c\u6b22\u7684\u53e3\u5473\uff0c\u5e94\u5c06\u997a\u5b50\u5f53\u4f5c\u4e3b\u98df\uff0c\u4e00\u822c\u9009\u62e98\uff5e15\u4e2a\u4e3a\u9002\u5b9c\uff0c\u53ef\u4f5c\u4e3a\u6b63\u9910\u6216\u65e9\u9910\u3002",
        "category_id": "1"
      },
      {
        "name": "\u8089\u5305\u5b50",
        "quality": 0,
        "glycemicIndex": "39",
        "level": -1,
        "imgUrl": "http:\/\/p.qpic.cn\/byb_pic\/nANibrovzcpOFjsydkYibib56m5G1buKnzPBEVd1WDsSH7XzbDfcabnoxqmFNBTnbicz0akf2MJ46K8\/120",
        "content": "\u8425\u517b\u4ef7\u503c \u5728\u755c\u8089\u4e2d\uff0c\u732a\u8089\u7684\u86cb\u767d\u8d28\u542b\u91cf\u6700\u4f4e\uff0c\u8102\u80aa\u542b\u91cf\u6700\u9ad8\u3002\u7626\u732a\u8089\u542b\u86cb\u767d\u8d28\u8f83\u9ad8\uff0c\u6bcf100\u514b\u53ef\u542b\u9ad8\u8fbe29\u514b\u7684\u86cb\u767d\u8d28\uff0c\u542b\u8102\u80aa6\u514b\u3002\u7ecf\u716e\u7096\u540e\uff0c\u732a\u8089\u7684\u8102\u80aa\u542b\u91cf\u8fd8\u4f1a\u964d\u4f4e\u3002\u732a\u8089\u8fd8\u542b\u6709\u4e30\u5bcc\u7684\u7ef4\u751f\u7d20B\uff0e\uff0c\u53ef\u4ee5\u4f7f\u8eab\u4f53\u611f\u5230\u66f4\u6709\u529b\u6c14\u3002\u732a\u8089\u8fd8\u80fd\u63d0\u4f9b\u4eba\u4f53\u5fc5\u9700\u7684\u8102\u80aa\u9178\u3002\u732a\u8089\u6027\u5473\u7518\u6210\uff0c\u6ecb\u9634\u6da6\u71e5\uff0c\u53ef\u63d0\u4f9b\u8840\u7ea2\u7d20\uff08\u6709\u673a\u94c1\uff09\u548c\u4fc3\u8fdb\u94c1\u5438\u6536\u7684\u534a\u80f1\u6c28\u9178\uff0c\u80fd\u6539\u5584\u7f3a\u94c1\u6027\u8d2b\u8840\u3002\u732a\u6392\u6ecb\u9634\uff0c\u732a\u809a\u8865\u865a\u635f\u3001\u5065\u813e\u80c3\u3002",
        "category_id": "1"
      },
      {
        "name": "\u83dc\u5305\u5b50",
        "quality": 0,
        "glycemicIndex": "39",
        "level": -1,
        "imgUrl": "http:\/\/p.qpic.cn\/byb_pic\/Z3RibgOdGRPXbib4bXVI4ibw8Gkybsz6snVrokqMdTV6dibLMZKe0icaaWDclWiat65gJwnyC2woOfQ98\/120",
        "content": "\u7528\u852c\u83dc\u7b49\u505a\u9985\u3001\u53d1\u9762\u505a\u76ae\u3001\u5305\u6210\u540e\u84b8\u719f\u7684\u98df\u54c1\u3002",
        "category_id": "1"
      },
      {
        "name": "\u7092\u5e74\u7cd5",
        "quality": 0,
        "glycemicIndex": "87",
        "level": -1,
        "imgUrl": "http:\/\/p.qpic.cn\/byb_pic\/8WI4ap7TbUBAteibaE4tias3eUzmiaxmrtGCRIzWiaeojG2HWUXiaQejF8SlrGs1iafkGspxL6yImr4pw\/120",
        "content": "\u7092\u5e74\u7cd5\u5177\u6709\u589e\u5f3a\u62b5\u6297\u529b\u3001\u5229\u8188\u5bbd\u80a0\u3001\u6740\u83cc\u3001\u4fc3\u8fdb\u6d88\u5316 \u964d\u8840\u538b\u964d\u8840\u8102\u3001\u9632\u764c\u6297\u764c\u3001\u5ef6\u7f13\u8870\u8001 \u8865\u9499\u7b49\u529f\u6548\uff0c\u9002\u5b9c\u764c\u75c7\u3001\u9ad8\u8840\u538b\u3001\u591c\u76f2\u75c7\u3001\u76ae\u80a4\u7c97\u7cd9\u8005\u7b49\uff0c\u4e00\u822c\u4eba\u7fa4\u5747\u53ef\u98df\u7528\u3001\u4e09\u9ad8\u4eba\u7fa4\u9002\u5b9c\u6709\u76ae\u80a4\u7619\u75d2\u3001\u80c3\u75c5\u7684\u60a3\u8005\u5c11\u5403",
        "category_id": "1"
      },
      {
        "name": "\u516b\u5b9d\u7ca5",
        "quality": 0,
        "glycemicIndex": "42",
        "level": -1,
        "imgUrl": "http:\/\/p.qpic.cn\/byb_pic\/8iaPSP21641FdexIIUCjicFGzYole0cme4f9jxrPfD5GXmtVpS4qO0WaAOUI7UypSk1CcYiaCPZZpw\/120",
        "content": "\n\u7cd6\u5c3f\u75c5\u4eba\u81ea\u5df1\u914d\u6599\u8fc7\u7a0b\u4e2d\u4e0d\u5e94\u9009\u62e9\u542b\u7cd6\u91cf\u9ad8\u7684\u7ea2\u67a3\u3001\u6842\u5706\u4e4b\u7c7b\u7684\uff0c\u575a\u679c\u7c7b\u7684\u4e5f\u5e94\u8be5\u6ce8\u610f\u5206\u91cf\uff0c\u4e0d\u7136\u71ac\u5236\u6210\u9ad8\u70ed\u91cf\u7684\u516b\u5b9d\u7ca5\uff0c\u716e\u5236\u8fc7\u7a0b\u4e5f\u4e0d\u5e94\u592a\u7a20\uff0c\u4e0d\u52a0\u7cd6\u98df\u7528\u3002\u6bcf\u6b21200\u514b\u4e3a\u4f73\u3002\u5e02\u552e\u7684\u7f50\u88c5\u201c\u516b\u5b9d\u7ca5\u201d\u6700\u597d\u4e0d\u8981\u9009\u62e9\u3002",
        "category_id": "1"
      },
      {
        "name": "\u62c9\u80a0",
        "quality": 0,
        "glycemicIndex": "65",
        "level": -1,
        "imgUrl": "http:\/\/p.qpic.cn\/byb_pic\/Fa3l6M5BfXdNFDoXkb8lqJ0iaQxicKJ86dYr6hibnsHrPmK3OnqialDRx01k5ibBIyP0Zdyjs1X7H4As\/120",
        "content": "\u62c9\u80a0\u7684\u70f9\u8c03\u624b\u6bb5\u662f\u7c73\u6d46\u84b8\u6210\u8584\u76ae\uff0c\u5347\u7cd6\u901f\u5ea6\u6bd4\u8f83\u9ad8\uff0c\u4f46\u914d\u4ee5\u852c\u83dc\u7c7b\u3001\u8089\u7c7b\uff0c\u5927\u5927\u53ef\u5c06\u5347\u7cd6\u901f\u5ea6\u51cf\u4f4e\u3002",
        "category_id": "1"
      },
      {
        "name": "\u5c0f\u7b3c\u5305",
        "quality": 0,
        "glycemicIndex": "39",
        "level": -1,
        "imgUrl": "http:\/\/p.qpic.cn\/byb_pic\/r9nPFwDJzywxfKUNUrFRZjKIo5oLTxEfwgZZr6jKMhUjZSTajyPB5tJoT7V9ZnEyo4IXB3m77icU\/120",
        "content": "\u5c0f\u7b3c\u5305\uff0c\u987e\u540d\u601d\u4e49\uff0c\u662f\u653e\u5728\u5c0f\u84b8\u7b3c\u91cc\u84b8\u7684\uff0c\u52062\u79cd\uff1a1.\u6709\u6c64\u6c41\u7684\uff0c\u52a0\u5165\u4e86\u76ae\u51bb\uff0c\u53eb\u5c0f\u7b3c\u6c64\u5305\u3002\u76ae\u53c8\u8584\u53c8\u7b4b\u9053,\u534a\u900f\u660e,\u505a\u6cd5\u662f\u9762\u7c89\u4e0d\u53d1\u9175\u30022.\u6ca1\u6709\u6c64\u6c41\u7684\uff0c\u5c31\u662f\u4e00\u822c\u7684\u5c0f\u8089\u5305\u3002\u76ae\u6ca1\u6709\u4e0a\u9762\u4e00\u79cd\u8584\uff0c\u8981\u53d1\u9175\u9762\u7c89\u505a\u3002",
        "category_id": "1"
      },
      {
        "name": "\u70ed\u5e72\u9762",
        "quality": 0,
        "glycemicIndex": "55",
        "level": -1,
        "imgUrl": "http:\/\/p.qpic.cn\/byb_pic\/g4V3m5YLU7UfRG8QUpyzkLg5LCKXfCyNZMNLrC6WOYakwKJZxfictvzbRjXfYhpCoTpTJwzj3E0Q\/120",
        "content": "\n\u70ed\u5e72\u9762\u7684\u9762\u6761\u7ea4\u7ec6\u6839\u6839\u6709\u7b4b\u529b\uff0c\u8272\u6cfd\u9ec4\u800c\u6cb9\u6da6\uff0c\u6ecb\u5473\u9c9c\u7f8e\u3002\u62cc\u4ee5\u9999\u6cb9\u3001\u829d\u9ebb\u9171\u3001\u9c9c\u8fa3\u5473\u7c89\u3001\u4e94\u9999\u9171\u83dc\u7b49\u914d\u6599\uff0c\u56e0\u6b64\uff0c\u5728\u914d\u6599\u4e0a\u5c3d\u91cf\u5c11\u6cb9\u4e00\u4e9b\uff0c\u4ee5\u5229\u4e8e\u8840\u7cd6\u548c\u8840\u8102\u7684\u63a7\u5236\u3002",
        "category_id": "1"
      },
      {
        "name": "\u9752\u7a1e\u7092\u9762",
        "quality": 0,
        "glycemicIndex": "60",
        "level": -1,
        "imgUrl": "http:\/\/p.qpic.cn\/byb_pic\/9QGldjxVNYibuPZmOLGLxUDRDyzcRwCEMAy0uT6ZAesEo2Cr8AU4iaLfw02xZiaQW5lAPeRYyqiaiclU\/120",
        "content": "\n\u63a8\u8350\u7cd6\u5c3f\u75c5\u4eba\u9009\u62e9\u3002",
        "category_id": "1"
      },
      {
        "name": "\u51c9\u9762",
        "quality": 0,
        "glycemicIndex": "55",
        "level": -1,
        "imgUrl": "http:\/\/p.qpic.cn\/byb_pic\/pypXUUaosWB8PU1qNiaaY1YqbdnYpDk7T3DJ2b3fNKJnFbyXP6Q6NuHKr57z8XZHfhIZHOdUOIGY\/120",
        "content": "\u5efa\u8bae\u7cd6\u5c3f\u75c5\u4eba\u9009\u62e9\u51c9\u9762\u4f5c\u4e3a\u4e3b\u98df\u65f6\uff0c\u591a\u589e\u52a0\u4e00\u4e9b\u852c\u83dc\u642d\u914d\u800c\u964d\u4f4e\u5347\u7cd6\u901f\u5ea6\u3002 \u4e5f\u53ef\u9009\u62e9\u4ee5\u6742\u7cae\u5236\u4f5c\u7684\u9762\u6761\u505a\u6210\u7684\u51c9\u9762\uff0c\u4f8b\u5982\u839c\u9ea6\u9762\u3001\u7389\u7c73\u9762\u6761\u7b49\uff0c\u5347\u7cd6\u901f\u5ea6\u8f83\u7eaf\u7cbe\u5236\u9762\u7c89\u5236\u4f5c\u800c\u6210\u7684\u9762\u6761\u4f4e\u4e00\u4e9b\u3002",
        "category_id": "1"
      }
    ]
  }
]