{
  "path": "绝对路径/node-day1",
  "isFile": false,
  "children": [
    { "path": "绝对路径/node-day1/commonJS规范", "isFile": false, "children": [] },
    { "path": "绝对路径/node-day1/笔记.md", "isFile": true }
  ]
}