{
	"pages": [
    {
      "path": "pages/index/index",
      "style": {
        "navigationBarTitleText": "首页"
      }
    },
    {
      "path" : "pages/toplist/toplist",
      "style" : 
      {
        "navigationBarTitleText" : "排行榜"
      }
    },
    {
      "path" : "pages/search/search",
      "style" : 
      {
        "navigationBarTitleText" : "搜索",
        "enablePullDownRefresh" : false
      }
    },
    {
      "path" : "pages/songlist/songlist",
      "style" : 
      {
        "navigationBarTitleText" : "歌单",
        "enablePullDownRefresh" : false
      }
    },
    {
      "path" : "pages/player/player",
      "style" : 
      {
        "navigationBarTitleText" : "播放器",
        "enablePullDownRefresh" : false
      }
    },
    {
      "path" : "pages/mine/mine",
      "style" : 
      {
        "navigationBarTitleText" : "我的音乐",
        "enablePullDownRefresh" : false
      }
    },
    {
      "path" : "pages/podcast/podcast",
      "style" : 
      {
        "navigationBarTitleText" : "播客",
        "enablePullDownRefresh" : false
      }
    },
    {
      "path" : "pages/community/community",
      "style" : 
      {
        "navigationBarTitleText" : "社区",
        "enablePullDownRefresh" : false
      }
    },
    {
      "path" : "pages/recommend/recommend",
      "style" : 
      {
        "navigationBarTitleText" : "每日推荐",
        "enablePullDownRefresh" : false
      }
    },
    {
      "path" : "pages/personalfm/personalfm",
      "style" : 
      {
        "navigationBarTitleText" : "私人",
        "enablePullDownRefresh" : false
      }
    },
    {
      "path" : "pages/login/login",
      "style" : 
      {
        "navigationBarTitleText" : "登录",
        "enablePullDownRefresh" : false
      }
    }
  ],
	"globalStyle": {
		"navigationBarTextStyle": "white",
		"navigationBarTitleText": "mqq-music",
		"navigationBarBackgroundColor": "#c84341",
		"backgroundColor": "#F8F8F8",
		"app-plus": {
			"background": "#efeff4"
		}
	},
  "tabBar": {
    "color": "#333333",
    "selectedColor": "#c84341",
    "borderStyle": "black",
    "backgroundColor": "#ffffff",
    "list": [
      {
        "pagePath": "pages/index/index",
        "iconPath": "static/icon/faxian.png",
        "selectedIconPath": "static/icon/faxian_1.png",
        "text": "发现"
      },
      {
        "pagePath": "pages/podcast/podcast",
        "iconPath": "static/icon/guangbo.png",
        "selectedIconPath": "static/icon/guangbo_1.png",
        "text": "播客"
      },
      {
        "pagePath": "pages/community/community",
        "iconPath": "static/icon/guangbo.png",
        "selectedIconPath": "static/icon/guangbo_1.png",
        "text": "社区"
      },
      {
        "pagePath": "pages/mine/mine",
        "iconPath": "static/icon/wode.png",
        "selectedIconPath": "static/icon/wode_1.png",
        "text": "我的"
      }
    ]
  }
}
